# This file uses centimeters as units for non-parametric coordinates.

mtllib Flask_low.mtl
g default
v 0.000000 0.002891 0.000000
v 0.046003 0.010821 -0.014947
v 0.043309 0.005214 -0.014072
v 0.036804 0.002891 -0.011958
v 0.039133 0.010821 -0.028431
v 0.036840 0.005214 -0.026766
v 0.031307 0.002891 -0.022746
v 0.028432 0.010821 -0.039133
v 0.026766 0.005214 -0.036840
v 0.022746 0.002891 -0.031307
v 0.014947 0.010821 -0.046003
v 0.014072 0.005214 -0.043309
v 0.011958 0.002891 -0.036803
v 0.000000 0.010821 -0.048370
v 0.000000 0.005214 -0.045537
v 0.000000 0.002891 -0.038697
v -0.014947 0.010821 -0.046003
v -0.014072 0.005214 -0.043309
v -0.011958 0.002891 -0.036803
v -0.028431 0.010821 -0.039133
v -0.026766 0.005214 -0.036840
v -0.022746 0.002891 -0.031307
v -0.039133 0.010821 -0.028431
v -0.036840 0.005214 -0.026766
v -0.031307 0.002891 -0.022746
v -0.046003 0.010821 -0.014947
v -0.043309 0.005214 -0.014072
v -0.036803 0.002891 -0.011958
v -0.048370 0.010821 0.000000
v -0.045537 0.005214 0.000000
v -0.038697 0.002891 0.000000
v -0.046003 0.010821 0.014947
v -0.043309 0.005214 0.014072
v -0.036803 0.002891 0.011958
v -0.039133 0.010821 0.028431
v -0.036840 0.005214 0.026766
v -0.031307 0.002891 0.022746
v -0.028431 0.010821 0.039132
v -0.026766 0.005214 0.036840
v -0.022746 0.002891 0.031307
v -0.014947 0.010821 0.046003
v -0.014072 0.005214 0.043309
v -0.011958 0.002891 0.036803
v 0.000000 0.010821 0.048370
v 0.000000 0.005214 0.045537
v 0.000000 0.002891 0.038697
v 0.014947 0.010821 0.046003
v 0.014072 0.005214 0.043309
v 0.011958 0.002891 0.036803
v 0.028432 0.010821 0.039132
v 0.026766 0.005214 0.036840
v 0.022746 0.002891 0.031307
v 0.039133 0.010821 0.028431
v 0.036840 0.005214 0.026766
v 0.031307 0.002891 0.022746
v 0.046003 0.010821 0.014947
v 0.043309 0.005214 0.014072
v 0.036804 0.002891 0.011958
v 0.048371 0.010821 0.000000
v 0.045537 0.005214 -0.000000
v 0.038698 0.002891 -0.000000
v 0.026033 0.190827 -0.008459
v 0.034504 0.187627 -0.011211
v 0.042922 0.178885 -0.013946
v 0.046003 0.166942 -0.014947
v 0.022145 0.190827 -0.016089
v 0.029351 0.187627 -0.021324
v 0.036512 0.178885 -0.026527
v 0.039133 0.166942 -0.028431
v 0.016089 0.190827 -0.022145
v 0.021325 0.187627 -0.029350
v 0.026527 0.178885 -0.036511
v 0.028432 0.166942 -0.039133
v 0.008459 0.190827 -0.026033
v 0.011211 0.187627 -0.034504
v 0.013946 0.178885 -0.042922
v 0.014947 0.166942 -0.046003
v 0.000000 0.190827 -0.027373
v 0.000000 0.187627 -0.036279
v 0.000000 0.178885 -0.045131
v 0.000000 0.166942 -0.048370
v -0.008458 0.190827 -0.026033
v -0.011211 0.187627 -0.034504
v -0.013946 0.178885 -0.042922
v -0.014947 0.166942 -0.046003
v -0.016089 0.190827 -0.022145
v -0.021324 0.187627 -0.029350
v -0.026527 0.178885 -0.036511
v -0.028431 0.166942 -0.039133
v -0.022145 0.190827 -0.016089
v -0.029350 0.187627 -0.021324
v -0.036511 0.178885 -0.026527
v -0.039133 0.166942 -0.028431
v -0.026033 0.190827 -0.008459
v -0.034504 0.187627 -0.011211
v -0.042922 0.178885 -0.013946
v -0.046003 0.166942 -0.014947
v -0.027372 0.190827 0.000000
v -0.036279 0.187627 0.000000
v -0.045130 0.178885 0.000000
v -0.048370 0.166942 0.000000
v -0.026033 0.190827 0.008459
v -0.034504 0.187627 0.011211
v -0.042922 0.178885 0.013946
v -0.046003 0.166942 0.014947
v -0.022145 0.190827 0.016089
v -0.029350 0.187627 0.021324
v -0.036511 0.178885 0.026527
v -0.039133 0.166942 0.028431
v -0.016089 0.190827 0.022145
v -0.021324 0.187627 0.029350
v -0.026527 0.178885 0.036511
v -0.028431 0.166942 0.039132
v -0.008458 0.190827 0.026033
v -0.011211 0.187627 0.034504
v -0.013946 0.178885 0.042922
v -0.014947 0.166942 0.046003
v 0.000000 0.190827 0.027373
v 0.000000 0.187627 0.036279
v 0.000000 0.178885 0.045131
v 0.000000 0.166942 0.048370
v 0.008459 0.190827 0.026033
v 0.011211 0.187627 0.034504
v 0.013946 0.178885 0.042922
v 0.014947 0.166942 0.046003
v 0.016089 0.190827 0.022145
v 0.021325 0.187627 0.029350
v 0.026527 0.178885 0.036511
v 0.028432 0.166942 0.039132
v 0.022145 0.190827 0.016089
v 0.029351 0.187627 0.021324
v 0.036512 0.178885 0.026527
v 0.039133 0.166942 0.028431
v 0.026033 0.190827 0.008459
v 0.034504 0.187627 0.011211
v 0.042922 0.178885 0.013946
v 0.046003 0.166942 0.014947
v 0.027373 0.190827 -0.000000
v 0.036279 0.187627 -0.000000
v 0.045131 0.178885 -0.000000
v 0.048371 0.166942 0.000000
v 0.022145 0.193792 -0.016089
v 0.026033 0.193792 -0.008459
v 0.016089 0.193792 -0.022145
v 0.008459 0.193792 -0.026033
v 0.000000 0.193792 -0.027373
v -0.008458 0.193792 -0.026033
v -0.016089 0.193792 -0.022145
v -0.022145 0.193792 -0.016089
v -0.026033 0.193792 -0.008459
v -0.027372 0.193792 0.000000
v -0.026033 0.193792 0.008459
v -0.022145 0.193792 0.016089
v -0.016089 0.193792 0.022145
v -0.008458 0.193792 0.026033
v 0.000000 0.193792 0.027373
v 0.008459 0.193792 0.026033
v 0.016089 0.193792 0.022145
v 0.022145 0.193792 0.016089
v 0.026033 0.193792 0.008459
v 0.027373 0.193792 -0.000000
v 0.022145 0.212015 -0.016089
v 0.026033 0.212015 -0.008459
v 0.000000 0.212015 -0.000000
v 0.016089 0.212015 -0.022145
v 0.008459 0.212015 -0.026033
v 0.000000 0.212015 -0.027373
v -0.008458 0.212015 -0.026033
v -0.016089 0.212015 -0.022145
v -0.022145 0.212015 -0.016089
v -0.026033 0.212015 -0.008459
v -0.027372 0.212015 0.000000
v -0.026033 0.212015 0.008459
v -0.022145 0.212015 0.016089
v -0.016089 0.212015 0.022145
v -0.008458 0.212015 0.026033
v 0.000000 0.212015 0.027373
v 0.008459 0.212015 0.026033
v 0.016089 0.212015 0.022145
v 0.022145 0.212015 0.016089
v 0.026033 0.212015 0.008459
v 0.027373 0.212015 -0.000000
v 0.027126 0.193792 -0.019708
v 0.031888 0.193792 -0.010361
v 0.027126 0.212015 -0.019708
v 0.031888 0.212015 -0.010361
v 0.019708 0.193792 -0.027126
v 0.019708 0.212015 -0.027126
v 0.010361 0.193792 -0.031888
v 0.010361 0.212015 -0.031888
v 0.000000 0.193792 -0.033529
v 0.000000 0.212015 -0.033529
v -0.010361 0.193792 -0.031888
v -0.010361 0.212015 -0.031888
v -0.019708 0.193792 -0.027126
v -0.019708 0.212015 -0.027126
v -0.027126 0.193792 -0.019708
v -0.027126 0.212015 -0.019708
v -0.031888 0.193792 -0.010361
v -0.031888 0.212015 -0.010361
v -0.033529 0.193792 0.000000
v -0.033529 0.212015 0.000000
v -0.031888 0.193792 0.010361
v -0.031888 0.212015 0.010361
v -0.027126 0.193792 0.019708
v -0.027126 0.212015 0.019708
v -0.019708 0.193792 0.027126
v -0.019708 0.212015 0.027126
v -0.010361 0.193792 0.031888
v -0.010361 0.212015 0.031888
v 0.000000 0.193792 0.033529
v 0.000000 0.212015 0.033529
v 0.010361 0.193792 0.031888
v 0.010361 0.212015 0.031888
v 0.019708 0.193792 0.027126
v 0.019708 0.212015 0.027126
v 0.027126 0.193792 0.019708
v 0.027126 0.212015 0.019708
v 0.031888 0.193792 0.010361
v 0.031888 0.212015 0.010361
v 0.033529 0.193792 0.000000
v 0.033529 0.212015 0.000000
vt 0.487682 0.746504
vt 0.474707 0.716481
vt 0.453090 0.691937
vt 0.424947 0.675274
vt 0.393031 0.668123
vt 0.360468 0.671185
vt 0.330445 0.684159
vt 0.305900 0.705776
vt 0.289237 0.733920
vt 0.282087 0.765835
vt 0.285149 0.798398
vt 0.298123 0.828421
vt 0.319740 0.852966
vt 0.347884 0.869629
vt 0.379800 0.876779
vt 0.412363 0.873718
vt 0.442385 0.860743
vt 0.466930 0.839126
vt 0.483593 0.810982
vt 0.386415 0.772451
vt 0.490743 0.779067
vt 0.000000 0.321615
vt 0.642142 0.307940
vt 0.505857 0.741852
vt 0.000000 0.307940
vt 0.490555 0.706440
vt 0.034261 0.307940
vt 0.465060 0.677490
vt 0.064805 0.307940
vt 0.431866 0.657835
vt 0.096323 0.307940
vt 0.394224 0.649400
vt 0.128324 0.307940
vt 0.355816 0.653009
vt 0.160578 0.307940
vt 0.320405 0.668311
vt 0.192969 0.307940
vt 0.291454 0.693806
vt 0.225435 0.307940
vt 0.271799 0.727000
vt 0.257945 0.307940
vt 0.263363 0.764643
vt 0.290481 0.307940
vt 0.266973 0.803050
vt 0.323031 0.307940
vt 0.282275 0.838462
vt 0.355586 0.307940
vt 0.307771 0.867412
vt 0.388169 0.307940
vt 0.340964 0.887067
vt 0.420676 0.307940
vt 0.378607 0.895503
vt 0.453180 0.307940
vt 0.417014 0.891893
vt 0.485619 0.307940
vt 0.452426 0.876592
vt 0.517938 0.307940
vt 0.481376 0.851096
vt 0.550028 0.307940
vt 0.501031 0.817902
vt 0.581690 0.307940
vt 0.509467 0.780259
vt 0.612510 0.307940
vt 0.774497 0.481100
vt 0.750935 0.486170
vt 0.726954 0.483694
vt 0.704915 0.473923
vt 0.686979 0.457807
vt 0.674865 0.436980
vt 0.669790 0.413411
vt 0.672257 0.389423
vt 0.682033 0.367374
vt 0.698128 0.349422
vt 0.718995 0.337333
vt 0.742573 0.332292
vt 0.766554 0.334794
vt 0.788599 0.344507
vt 0.806568 0.360577
vt 0.818687 0.381422
vt 0.823756 0.405003
vt 0.821299 0.428991
vt 0.811531 0.451050
vt 0.795401 0.469021
vt 0.909883 0.806518
vt 0.034261 0.321615
vt 0.000000 0.594263
vt 0.064805 0.321615
vt 0.034261 0.594263
vt 0.096323 0.321615
vt 0.064805 0.594263
vt 0.128324 0.321615
vt 0.096323 0.594263
vt 0.160578 0.321615
vt 0.128324 0.594263
vt 0.192969 0.321615
vt 0.160578 0.594263
vt 0.225435 0.321615
vt 0.192969 0.594263
vt 0.257945 0.321615
vt 0.225435 0.594263
vt 0.290481 0.321615
vt 0.257945 0.594263
vt 0.323031 0.321615
vt 0.290481 0.594263
vt 0.355586 0.321615
vt 0.323031 0.594263
vt 0.388169 0.321615
vt 0.355586 0.594263
vt 0.420676 0.321615
vt 0.388169 0.594263
vt 0.453180 0.321615
vt 0.420676 0.594263
vt 0.485619 0.321615
vt 0.453180 0.594263
vt 0.517938 0.321615
vt 0.485619 0.594263
vt 0.550028 0.321615
vt 0.517938 0.594263
vt 0.581690 0.321615
vt 0.550028 0.594263
vt 0.612510 0.321615
vt 0.581690 0.594263
vt 0.642142 0.321615
vt 0.612510 0.594263
vt 0.642142 0.594263
vt 0.810762 0.487972
vt 0.642142 0.617853
vt 0.034261 0.649400
vt 0.034261 0.617853
vt 0.064805 0.649400
vt 0.064805 0.617853
vt 0.096323 0.649400
vt 0.096323 0.617853
vt 0.128324 0.649400
vt 0.128324 0.617853
vt 0.160578 0.649400
vt 0.160578 0.617853
vt 0.192969 0.649400
vt 0.192969 0.617853
vt 0.225435 0.649400
vt 0.225435 0.617853
vt 0.257945 0.649400
vt 0.257945 0.617853
vt 0.290481 0.649400
vt 0.290481 0.617853
vt 0.323031 0.649400
vt 0.323031 0.617853
vt 0.355586 0.649400
vt 0.355586 0.617853
vt 0.388169 0.649400
vt 0.388169 0.617853
vt 0.420676 0.649400
vt 0.420676 0.617853
vt 0.453180 0.649400
vt 0.453180 0.617853
vt 0.485619 0.649400
vt 0.485619 0.617853
vt 0.517938 0.649400
vt 0.517938 0.617853
vt 0.550028 0.649400
vt 0.550028 0.617853
vt 0.581690 0.649400
vt 0.581690 0.617853
vt 0.612510 0.649400
vt 0.612510 0.617853
vt 0.840011 0.658931
vt 0.860696 0.648562
vt 0.877165 0.632308
vt 0.887804 0.611761
vt 0.891574 0.588932
vt 0.888104 0.566055
vt 0.877735 0.545369
vt 0.861481 0.528901
vt 0.840934 0.518261
vt 0.818105 0.514492
vt 0.795228 0.517961
vt 0.774543 0.528330
vt 0.758074 0.544584
vt 0.747435 0.565132
vt 0.743665 0.587961
vt 0.747135 0.610838
vt 0.757504 0.631523
vt 0.773758 0.647991
vt 0.794305 0.658631
vt 0.817134 0.662401
vt 0.959229 0.861603
vt 0.939792 0.874156
vt 0.917427 0.880088
vt 0.894323 0.878819
vt 0.872743 0.870472
vt 0.854798 0.855865
vt 0.842244 0.836427
vt 0.836312 0.814062
vt 0.837582 0.790959
vt 0.845929 0.769378
vt 0.860536 0.751433
vt 0.879973 0.738880
vt 0.902338 0.732948
vt 0.925442 0.734217
vt 0.947023 0.742564
vt 0.964968 0.757171
vt 0.977521 0.776609
vt 0.983453 0.798974
vt 0.982183 0.822078
vt 0.973837 0.843658
vt 0.845730 0.000000
vt 0.870385 0.662083
vt 0.882845 0.367733
vt 0.970328 0.873993
vt 0.890558 0.642174
vt 0.882845 0.348379
vt 0.903590 0.617005
vt 0.882845 0.329025
vt 0.908208 0.589041
vt 0.882845 0.309670
vt 0.903958 0.561018
vt 0.882845 0.290316
vt 0.891256 0.535680
vt 0.882845 0.270961
vt 0.871347 0.515508
vt 0.882845 0.251607
vt 0.846178 0.502475
vt 0.882845 0.232253
vt 0.818214 0.497858
vt 0.882845 0.212898
vt 0.790192 0.502108
vt 0.882845 0.193544
vt 0.764854 0.514809
vt 0.882845 0.174190
vt 0.744682 0.534719
vt 0.882845 0.154835
vt 0.731649 0.559888
vt 0.882845 0.135481
vt 0.727031 0.587852
vt 0.882845 0.116126
vt 0.731281 0.615874
vt 0.882845 0.096772
vt 0.743983 0.641212
vt 0.882845 0.077418
vt 0.763892 0.661384
vt 0.882845 0.058063
vt 0.789061 0.674417
vt 0.882845 0.038709
vt 0.817025 0.679034
vt 0.882845 0.019355
vt 0.000000 0.617853
vt 0.000000 0.649400
vt 0.642142 0.649400
vt 0.832083 0.464237
vt 0.844901 0.435220
vt 0.848118 0.403625
vt 0.841429 0.372589
vt 0.825454 0.345121
vt 0.801776 0.323967
vt 0.772766 0.311200
vt 0.741268 0.307940
vt 0.710218 0.314567
vt 0.682725 0.330495
vt 0.661527 0.354150
vt 0.648672 0.383180
vt 0.645426 0.414792
vt 0.652127 0.445839
vt 0.668086 0.473245
vt 0.691673 0.494407
vt 0.720698 0.507283
vt 0.752276 0.510546
vt 0.783220 0.503911
vt 0.882845 0.387088
vt 0.988221 0.852012
vt 0.998445 0.825577
vt 1.000000 0.797277
vt 0.992734 0.769882
vt 0.977358 0.746072
vt 0.955377 0.728180
vt 0.928942 0.717956
vt 0.900642 0.716400
vt 0.873246 0.723667
vt 0.849437 0.739043
vt 0.831545 0.761024
vt 0.821320 0.787459
vt 0.819765 0.815759
vt 0.827031 0.843154
vt 0.842408 0.866964
vt 0.864389 0.884856
vt 0.890823 0.895080
vt 0.919124 0.896636
vt 0.946519 0.889369
vt 0.845048 0.674784
vt 0.845730 0.019355
vt 0.845730 0.038709
vt 0.845730 0.058063
vt 0.845730 0.077417
vt 0.845730 0.096772
vt 0.845730 0.116126
vt 0.845730 0.135481
vt 0.845730 0.154835
vt 0.845730 0.174190
vt 0.845730 0.193544
vt 0.845730 0.212898
vt 0.845730 0.232253
vt 0.845730 0.251607
vt 0.845730 0.270961
vt 0.845730 0.290316
vt 0.845730 0.309670
vt 0.845730 0.329025
vt 0.845730 0.348379
vt 0.845730 0.367733
vt 0.792841 0.465863
vt 0.808114 0.448852
vt 0.817371 0.427958
vt 0.819710 0.405230
vt 0.814903 0.382894
vt 0.803429 0.363150
vt 0.786415 0.347926
vt 0.765520 0.338706
vt 0.742788 0.336344
vt 0.720456 0.341120
vt 0.700694 0.352567
vt 0.685438 0.369571
vt 0.676182 0.390461
vt 0.673843 0.413178
vt 0.678644 0.435501
vt 0.690115 0.455247
vt 0.707119 0.470515
vt 0.727994 0.479770
vt 0.750708 0.482117
vt 0.773049 0.477320
vt 0.845730 0.387088
vt 0.882845 0.000000
vn 0.087065 -0.994192 -0.063257
vn 0.102351 -0.994192 -0.033256
vn 0.000000 -1.000000 -0.000000
vn 0.063255 -0.994193 -0.087064
vn 0.033256 -0.994192 -0.102351
vn 0.000000 -0.994192 -0.107618
vn -0.033255 -0.994192 -0.102350
vn -0.063255 -0.994192 -0.087064
vn -0.087065 -0.994192 -0.063257
vn -0.102351 -0.994192 -0.033255
vn -0.107616 -0.994193 0.000000
vn -0.102351 -0.994192 0.033255
vn -0.087065 -0.994192 0.063257
vn -0.063255 -0.994192 0.087064
vn -0.033255 -0.994192 0.102350
vn 0.000000 -0.994192 0.107618
vn 0.033256 -0.994192 0.102351
vn 0.063256 -0.994192 0.087064
vn 0.087065 -0.994192 0.063256
vn 0.102351 -0.994192 0.033256
vn 0.107618 -0.994192 0.000000
vn 0.950931 -0.016280 -0.308976
vn 0.639942 -0.739756 -0.207932
vn 0.544365 -0.739758 -0.395505
vn 0.808910 -0.016280 -0.587707
vn 0.395508 -0.739756 -0.544367
vn 0.587707 -0.016280 -0.808910
vn 0.207929 -0.739754 -0.639944
vn 0.308976 -0.016280 -0.950931
vn 0.000000 -0.739754 -0.672878
vn 0.000000 -0.016280 -0.999867
vn -0.207930 -0.739755 -0.639944
vn -0.308976 -0.016280 -0.950931
vn -0.395507 -0.739755 -0.544368
vn -0.587707 -0.016280 -0.808910
vn -0.544366 -0.739755 -0.395511
vn -0.808905 -0.016280 -0.587714
vn -0.639944 -0.739755 -0.207929
vn -0.950933 -0.016280 -0.308969
vn -0.672877 -0.739755 0.000000
vn -0.999867 -0.016279 0.000000
vn -0.639944 -0.739755 0.207929
vn -0.950933 -0.016280 0.308969
vn -0.544366 -0.739754 0.395512
vn -0.808905 -0.016280 0.587714
vn -0.395507 -0.739755 0.544369
vn -0.587707 -0.016280 0.808910
vn -0.207930 -0.739755 0.639944
vn -0.308977 -0.016280 0.950930
vn 0.000000 -0.739754 0.672877
vn 0.000000 -0.016280 0.999868
vn 0.207930 -0.739755 0.639944
vn 0.308977 -0.016280 0.950930
vn 0.395509 -0.739755 0.544367
vn 0.587708 -0.016280 0.808909
vn 0.544366 -0.739758 0.395506
vn 0.808910 -0.016280 0.587708
vn 0.639942 -0.739756 0.207934
vn 0.950930 -0.016280 0.308979
vn 0.672875 -0.739756 0.000000
vn 0.999867 -0.016280 0.000000
vn 0.000000 1.000000 -0.000002
vn 0.000000 1.000000 0.000001
vn 0.000000 1.000000 -0.000000
vn 0.000000 1.000000 0.000002
vn 0.000000 1.000000 -0.000000
vn 0.000000 1.000000 0.000000
vn 0.000000 1.000000 0.000000
vn 0.000000 1.000000 -0.000001
vn 0.000000 1.000000 -0.000001
vn 0.000000 1.000000 -0.000000
vn 0.000000 1.000000 0.000000
vn 0.000000 1.000000 0.000000
vn 0.000000 1.000000 0.000000
vn 0.000000 1.000000 0.000000
vn 0.000000 1.000000 -0.000000
vn 0.000000 1.000000 -0.000000
vn 0.000000 1.000000 -0.000000
vn 0.000000 1.000000 -0.000000
vn 0.000000 1.000000 -0.000001
vn 0.000000 1.000000 -0.000000
vn 0.000000 1.000000 -0.000000
vn 0.808883 0.018219 -0.587688
vn 0.950899 0.018219 -0.308965
vn 0.587687 0.018219 -0.808883
vn 0.308965 0.018219 -0.950899
vn -0.000000 0.018219 -0.999834
vn -0.308966 0.018219 -0.950899
vn -0.587688 0.018219 -0.808883
vn -0.808878 0.018219 -0.587694
vn -0.950901 0.018219 -0.308958
vn -0.999834 0.018220 -0.000000
vn -0.950901 0.018219 0.308958
vn -0.808878 0.018219 0.587694
vn -0.587687 0.018219 0.808883
vn -0.308966 0.018219 0.950899
vn -0.000000 0.018219 0.999834
vn 0.308966 0.018219 0.950899
vn 0.587689 0.018219 0.808882
vn 0.808882 0.018219 0.587688
vn 0.950898 0.018219 0.308968
vn 0.999834 0.018219 -0.000000
vn 0.835965 0.476849 -0.271619
vn 0.711115 0.476848 -0.516655
vn 0.501691 0.849550 -0.163008
vn 0.564042 0.805153 -0.183265
vn 0.479804 0.805152 -0.348596
vn 0.426762 0.849552 -0.310058
vn 0.516654 0.476848 -0.711115
vn 0.348595 0.805152 -0.479804
vn 0.310060 0.849552 -0.426761
vn 0.271622 0.476848 -0.835965
vn 0.183268 0.805152 -0.564043
vn 0.163010 0.849550 -0.501690
vn -0.000000 0.476846 -0.878987
vn 0.000000 0.805151 -0.593070
vn -0.000000 0.849551 -0.527507
vn -0.271620 0.476848 -0.835966
vn -0.183268 0.805151 -0.564043
vn -0.163007 0.849552 -0.501688
vn -0.516653 0.476848 -0.711116
vn -0.348598 0.805151 -0.479804
vn -0.310060 0.849551 -0.426763
vn -0.711113 0.476848 -0.516657
vn -0.479802 0.805152 -0.348598
vn -0.426762 0.849551 -0.310059
vn -0.835966 0.476849 -0.271617
vn -0.564044 0.805150 -0.183268
vn -0.501683 0.849555 -0.163004
vn -0.878987 0.476845 -0.000000
vn -0.593072 0.805150 -0.000000
vn -0.527498 0.849556 0.000000
vn -0.835966 0.476849 0.271617
vn -0.564044 0.805150 0.183268
vn -0.501683 0.849555 0.163005
vn -0.711113 0.476848 0.516658
vn -0.479801 0.805152 0.348598
vn -0.426762 0.849551 0.310059
vn -0.516653 0.476848 0.711116
vn -0.348598 0.805151 0.479804
vn -0.310060 0.849551 0.426762
vn -0.271620 0.476848 0.835966
vn -0.183268 0.805151 0.564043
vn -0.163007 0.849552 0.501687
vn -0.000000 0.476847 0.878986
vn 0.000000 0.805151 0.593070
vn 0.000000 0.849551 0.527507
vn 0.271622 0.476848 0.835965
vn 0.183268 0.805152 0.564042
vn 0.163009 0.849550 0.501690
vn 0.516656 0.476848 0.711114
vn 0.348597 0.805152 0.479803
vn 0.310060 0.849553 0.426758
vn 0.711115 0.476848 0.516655
vn 0.479804 0.805152 0.348595
vn 0.426764 0.849551 0.310058
vn 0.835964 0.476850 0.271622
vn 0.564041 0.805153 0.183268
vn 0.501689 0.849550 0.163012
vn 0.878984 0.476851 -0.000000
vn 0.593068 0.805153 0.000000
vn 0.527511 0.849549 0.000000
vn 0.809019 -0.000000 -0.587783
vn 0.951056 0.000000 -0.309018
vn 0.587786 -0.000002 -0.809016
vn 0.309017 -0.000003 -0.951057
vn -0.000000 -0.000001 -1.000000
vn -0.309015 0.000000 -0.951057
vn -0.587783 0.000000 -0.809018
vn -0.809019 0.000000 -0.587782
vn -0.951060 0.000000 -0.309007
vn -1.000000 0.000000 0.000000
vn -0.951060 0.000000 0.309007
vn -0.809019 0.000000 0.587783
vn -0.587783 0.000000 0.809019
vn -0.309015 0.000000 0.951057
vn 0.000000 -0.000000 1.000000
vn 0.309016 -0.000001 0.951057
vn 0.587789 -0.000001 0.809014
vn 0.809020 -0.000000 0.587781
vn 0.951054 0.000000 0.309026
vn 1.000000 0.000000 0.000000
vn 0.916745 -0.266184 -0.297867
vn 0.779831 -0.266184 -0.566577
vn 0.779831 0.266184 -0.566577
vn 0.916745 0.266184 -0.297867
vn 0.566578 -0.266183 -0.779831
vn 0.566579 0.266183 -0.779830
vn 0.297869 -0.266184 -0.916745
vn 0.297869 0.266184 -0.916745
vn 0.000000 -0.266184 -0.963922
vn 0.000000 0.266184 -0.963922
vn -0.297866 -0.266185 -0.916745
vn -0.297866 0.266185 -0.916745
vn -0.566578 -0.266183 -0.779831
vn -0.566578 0.266183 -0.779831
vn -0.779832 -0.266183 -0.566577
vn -0.779832 0.266183 -0.566577
vn -0.916747 -0.266184 -0.297862
vn -0.916747 0.266184 -0.297862
vn -0.963922 -0.266185 0.000002
vn -0.963922 0.266185 0.000002
vn -0.916747 -0.266184 0.297862
vn -0.916747 0.266183 0.297862
vn -0.779832 -0.266182 0.566576
vn -0.779832 0.266182 0.566576
vn -0.566577 -0.266183 0.779831
vn -0.566577 0.266184 0.779831
vn -0.297867 -0.266184 0.916745
vn -0.297867 0.266185 0.916745
vn 0.000000 -0.266184 0.963922
vn 0.000000 0.266184 0.963922
vn 0.297869 -0.266183 0.916745
vn 0.297869 0.266184 0.916745
vn 0.566581 -0.266182 0.779829
vn 0.566581 0.266182 0.779829
vn 0.779831 -0.266186 0.566576
vn 0.779831 0.266185 0.566576
vn 0.916743 -0.266184 0.297873
vn 0.916743 0.266184 0.297873
vn 0.963923 -0.266182 -0.000000
vn 0.963923 0.266182 -0.000000
vn 0.000000 -1.000000 -0.000001
vn 0.000000 -1.000000 -0.000001
vn 0.000000 -1.000000 -0.000001
vn 0.000000 -1.000000 0.000000
vn 0.000000 -1.000000 0.000001
vn 0.000000 -1.000000 0.000000
vn 0.000000 -1.000000 -0.000000
vn 0.000000 -1.000000 -0.000001
vn 0.000000 -1.000000 0.000001
vn 0.000000 -1.000000 0.000001
vn 0.000000 -1.000000 -0.000001
vn 0.000000 -1.000000 -0.000000
vn 0.000000 -1.000000 0.000002
vn 0.000000 -1.000000 0.000001
vn 0.000000 -1.000000 0.000000
vn 0.000000 -1.000000 0.000001
vn 0.000000 -1.000000 0.000000
vn 0.000000 -1.000000 -0.000001
vn 0.000000 -1.000000 0.000000
vn 0.000000 -1.000000 -0.000001
s 1
g pCylinder2
usemtl initialShadingGroup
f 7/2/1 4/1/2 1/20/3
f 10/3/4 7/2/1 1/20/3
f 13/4/5 10/3/4 1/20/3
f 16/5/6 13/4/5 1/20/3
f 19/6/7 16/5/6 1/20/3
f 22/7/8 19/6/7 1/20/3
f 25/8/9 22/7/8 1/20/3
f 28/9/10 25/8/9 1/20/3
f 31/10/11 28/9/10 1/20/3
f 34/11/12 31/10/11 1/20/3
f 37/12/13 34/11/12 1/20/3
f 40/13/14 37/12/13 1/20/3
f 43/14/15 40/13/14 1/20/3
f 46/15/16 43/14/15 1/20/3
f 49/16/17 46/15/16 1/20/3
f 52/17/18 49/16/17 1/20/3
f 55/18/19 52/17/18 1/20/3
f 58/19/20 55/18/19 1/20/3
f 61/21/21 58/19/20 1/20/3
f 4/1/2 61/21/21 1/20/3
f 2/22/22 3/25/23 6/27/24 5/85/25
f 3/24/23 4/1/2 7/2/1 6/26/24
f 5/85/25 6/27/24 9/29/26 8/87/27
f 6/26/24 7/2/1 10/3/4 9/28/26
f 8/87/27 9/29/26 12/31/28 11/89/29
f 9/28/26 10/3/4 13/4/5 12/30/28
f 11/89/29 12/31/28 15/33/30 14/91/31
f 12/30/28 13/4/5 16/5/6 15/32/30
f 14/91/31 15/33/30 18/35/32 17/93/33
f 15/32/30 16/5/6 19/6/7 18/34/32
f 17/93/33 18/35/32 21/37/34 20/95/35
f 18/34/32 19/6/7 22/7/8 21/36/34
f 20/95/35 21/37/34 24/39/36 23/97/37
f 21/36/34 22/7/8 25/8/9 24/38/36
f 23/97/37 24/39/36 27/41/38 26/99/39
f 24/38/36 25/8/9 28/9/10 27/40/38
f 26/99/39 27/41/38 30/43/40 29/101/41
f 27/40/38 28/9/10 31/10/11 30/42/40
f 29/101/41 30/43/40 33/45/42 32/103/43
f 30/42/40 31/10/11 34/11/12 33/44/42
f 32/103/43 33/45/42 36/47/44 35/105/45
f 33/44/42 34/11/12 37/12/13 36/46/44
f 35/105/45 36/47/44 39/49/46 38/107/47
f 36/46/44 37/12/13 40/13/14 39/48/46
f 38/107/47 39/49/46 42/51/48 41/109/49
f 39/48/46 40/13/14 43/14/15 42/50/48
f 41/109/49 42/51/48 45/53/50 44/111/51
f 42/50/48 43/14/15 46/15/16 45/52/50
f 44/111/51 45/53/50 48/55/52 47/113/53
f 45/52/50 46/15/16 49/16/17 48/54/52
f 47/113/53 48/55/52 51/57/54 50/115/55
f 48/54/52 49/16/17 52/17/18 51/56/54
f 50/115/55 51/57/54 54/59/56 53/117/57
f 51/56/54 52/17/18 55/18/19 54/58/56
f 53/117/57 54/59/56 57/61/58 56/119/59
f 54/58/56 55/18/19 58/19/20 57/60/58
f 56/119/59 57/61/58 60/63/60 59/121/61
f 57/60/58 58/19/20 61/21/21 60/62/60
f 4/1/2 3/24/23 60/62/60 61/21/21
f 3/23/23 2/123/22 59/121/61 60/63/60
s 3
f 163/186/62 162/187/63 164/84/64
f 162/187/63 165/188/65 164/84/64
f 165/188/65 166/189/66 164/84/64
f 166/189/66 167/190/67 164/84/64
f 167/190/67 168/191/68 164/84/64
f 168/191/68 169/192/69 164/84/64
f 169/192/69 170/193/70 164/84/64
f 170/193/70 171/194/71 164/84/64
f 171/194/71 172/195/72 164/84/64
f 172/195/72 173/196/73 164/84/64
f 173/196/73 174/197/74 164/84/64
f 174/197/74 175/198/75 164/84/64
f 175/198/75 176/199/76 164/84/64
f 176/199/76 177/200/77 164/84/64
f 177/200/77 178/201/78 164/84/64
f 178/201/78 179/202/79 164/84/64
f 179/202/79 180/203/80 164/84/64
f 180/203/80 181/204/81 164/84/64
f 181/204/81 182/205/82 164/84/64
f 182/205/82 163/186/62 164/84/64
s 1
f 2/22/22 5/85/25 69/88/83 65/86/84
f 5/85/25 8/87/27 73/90/85 69/88/83
f 8/87/27 11/89/29 77/92/86 73/90/85
f 11/89/29 14/91/31 81/94/87 77/92/86
f 14/91/31 17/93/33 85/96/88 81/94/87
f 17/93/33 20/95/35 89/98/89 85/96/88
f 20/95/35 23/97/37 93/100/90 89/98/89
f 23/97/37 26/99/39 97/102/91 93/100/90
f 26/99/39 29/101/41 101/104/92 97/102/91
f 29/101/41 32/103/43 105/106/93 101/104/92
f 32/103/43 35/105/45 109/108/94 105/106/93
f 35/105/45 38/107/47 113/110/95 109/108/94
f 38/107/47 41/109/49 117/112/96 113/110/95
f 41/109/49 44/111/51 121/114/97 117/112/96
f 44/111/51 47/113/53 125/116/98 121/114/97
f 47/113/53 50/115/55 129/118/99 125/116/98
f 50/115/55 53/117/57 133/120/100 129/118/99
f 53/117/57 56/119/59 137/122/101 133/120/100
f 56/119/59 59/121/61 141/124/102 137/122/101
f 59/121/61 2/123/22 65/125/84 141/124/102
f 64/246/103 65/86/84 69/88/83 68/129/104
f 62/83/105 63/126/106 67/267/107 66/64/108
f 63/247/106 64/246/103 68/129/104 67/128/107
f 68/129/104 69/88/83 73/90/85 72/131/109
f 66/64/108 67/267/107 71/266/110 70/65/111
f 67/128/107 68/129/104 72/131/109 71/130/110
f 72/131/109 73/90/85 77/92/86 76/133/112
f 70/65/111 71/266/110 75/265/113 74/66/114
f 71/130/110 72/131/109 76/133/112 75/132/113
f 76/133/112 77/92/86 81/94/87 80/135/115
f 74/66/114 75/265/113 79/264/116 78/67/117
f 75/132/113 76/133/112 80/135/115 79/134/116
f 80/135/115 81/94/87 85/96/88 84/137/118
f 78/67/117 79/264/116 83/263/119 82/68/120
f 79/134/116 80/135/115 84/137/118 83/136/119
f 84/137/118 85/96/88 89/98/89 88/139/121
f 82/68/120 83/263/119 87/262/122 86/69/123
f 83/136/119 84/137/118 88/139/121 87/138/122
f 88/139/121 89/98/89 93/100/90 92/141/124
f 86/69/123 87/262/122 91/261/125 90/70/126
f 87/138/122 88/139/121 92/141/124 91/140/125
f 92/141/124 93/100/90 97/102/91 96/143/127
f 90/70/126 91/261/125 95/260/128 94/71/129
f 91/140/125 92/141/124 96/143/127 95/142/128
f 96/143/127 97/102/91 101/104/92 100/145/130
f 94/71/129 95/260/128 99/259/131 98/72/132
f 95/142/128 96/143/127 100/145/130 99/144/131
f 100/145/130 101/104/92 105/106/93 104/147/133
f 98/72/132 99/259/131 103/258/134 102/73/135
f 99/144/131 100/145/130 104/147/133 103/146/134
f 104/147/133 105/106/93 109/108/94 108/149/136
f 102/73/135 103/258/134 107/257/137 106/74/138
f 103/146/134 104/147/133 108/149/136 107/148/137
f 108/149/136 109/108/94 113/110/95 112/151/139
f 106/74/138 107/257/137 111/256/140 110/75/141
f 107/148/137 108/149/136 112/151/139 111/150/140
f 112/151/139 113/110/95 117/112/96 116/153/142
f 110/75/141 111/256/140 115/255/143 114/76/144
f 111/150/140 112/151/139 116/153/142 115/152/143
f 116/153/142 117/112/96 121/114/97 120/155/145
f 114/76/144 115/255/143 119/254/146 118/77/147
f 115/152/143 116/153/142 120/155/145 119/154/146
f 120/155/145 121/114/97 125/116/98 124/157/148
f 118/77/147 119/254/146 123/253/149 122/78/150
f 119/154/146 120/155/145 124/157/148 123/156/149
f 124/157/148 125/116/98 129/118/99 128/159/151
f 122/78/150 123/253/149 127/252/152 126/79/153
f 123/156/149 124/157/148 128/159/151 127/158/152
f 128/159/151 129/118/99 133/120/100 132/161/154
f 126/79/153 127/252/152 131/251/155 130/80/156
f 127/158/152 128/159/151 132/161/154 131/160/155
f 132/161/154 133/120/100 137/122/101 136/163/157
f 130/80/156 131/251/155 135/250/158 134/81/159
f 131/160/155 132/161/154 136/163/157 135/162/158
f 136/163/157 137/122/101 141/124/102 140/165/160
f 134/81/159 135/250/158 139/249/161 138/82/162
f 135/162/158 136/163/157 140/165/160 139/164/161
f 65/125/84 64/127/103 140/165/160 141/124/102
f 64/127/103 63/248/106 139/164/161 140/165/160
f 63/126/106 62/83/105 138/82/162 139/249/161
f 62/83/105 66/64/108 142/327/163 143/308/164
f 66/64/108 70/65/111 144/326/165 142/327/163
f 70/65/111 74/66/114 145/325/166 144/326/165
f 74/66/114 78/67/117 146/324/167 145/325/166
f 78/67/117 82/68/120 147/323/168 146/324/167
f 82/68/120 86/69/123 148/322/169 147/323/168
f 86/69/123 90/70/126 149/321/170 148/322/169
f 90/70/126 94/71/129 150/320/171 149/321/170
f 94/71/129 98/72/132 151/319/172 150/320/171
f 98/72/132 102/73/135 152/318/173 151/319/172
f 102/73/135 106/74/138 153/317/174 152/318/173
f 106/74/138 110/75/141 154/316/175 153/317/174
f 110/75/141 114/76/144 155/315/176 154/316/175
f 114/76/144 118/77/147 156/314/177 155/315/176
f 118/77/147 122/78/150 157/313/178 156/314/177
f 122/78/150 126/79/153 158/312/179 157/313/178
f 126/79/153 130/80/156 159/311/180 158/312/179
f 130/80/156 134/81/159 160/310/181 159/311/180
f 134/81/159 138/82/162 161/309/182 160/310/181
f 138/82/162 62/83/105 143/308/164 161/309/182
s 3
f 184/328/183 183/307/184 185/208/185 186/268/186
f 183/307/184 187/306/187 188/211/188 185/208/185
f 187/306/187 189/305/189 190/213/190 188/211/188
f 189/305/189 191/304/191 192/215/192 190/213/190
f 191/304/191 193/303/193 194/217/194 192/215/192
f 193/303/193 195/302/195 196/219/196 194/217/194
f 195/302/195 197/301/197 198/221/198 196/219/196
f 197/301/197 199/300/199 200/223/200 198/221/198
f 199/300/199 201/299/201 202/225/202 200/223/200
f 201/299/201 203/298/203 204/227/204 202/225/202
f 203/298/203 205/297/205 206/229/206 204/227/204
f 205/297/205 207/296/207 208/231/208 206/229/206
f 207/296/207 209/295/209 210/233/210 208/231/208
f 209/295/209 211/294/211 212/235/212 210/233/210
f 211/294/211 213/293/213 214/237/214 212/235/212
f 213/293/213 215/292/215 216/239/216 214/237/214
f 215/292/215 217/291/217 218/241/218 216/239/216
f 217/291/217 219/290/219 220/243/220 218/241/218
f 219/290/219 221/289/221 222/245/222 220/243/220
f 221/289/221 184/206/183 186/329/186 222/245/222
f 143/166/223 142/167/224 183/207/184 184/288/183
f 162/187/63 163/186/62 186/209/186 185/287/185
f 142/167/224 144/168/225 187/210/187 183/207/184
f 165/188/65 162/187/63 185/287/185 188/286/188
f 144/168/225 145/169/226 189/212/189 187/210/187
f 166/189/66 165/188/65 188/286/188 190/285/190
f 145/169/226 146/170/227 191/214/191 189/212/189
f 167/190/67 166/189/66 190/285/190 192/284/192
f 146/170/227 147/171/228 193/216/193 191/214/191
f 168/191/68 167/190/67 192/284/192 194/283/194
f 147/171/228 148/172/229 195/218/195 193/216/193
f 169/192/69 168/191/68 194/283/194 196/282/196
f 148/172/229 149/173/230 197/220/197 195/218/195
f 170/193/70 169/192/69 196/282/196 198/281/198
f 149/173/230 150/174/231 199/222/199 197/220/197
f 171/194/71 170/193/70 198/281/198 200/280/200
f 150/174/231 151/175/232 201/224/201 199/222/199
f 172/195/72 171/194/71 200/280/200 202/279/202
f 151/175/232 152/176/233 203/226/203 201/224/201
f 173/196/73 172/195/72 202/279/202 204/278/204
f 152/176/233 153/177/234 205/228/205 203/226/203
f 174/197/74 173/196/73 204/278/204 206/277/206
f 153/177/234 154/178/235 207/230/207 205/228/205
f 175/198/75 174/197/74 206/277/206 208/276/208
f 154/178/235 155/179/236 209/232/209 207/230/207
f 176/199/76 175/198/75 208/276/208 210/275/210
f 155/179/236 156/180/237 211/234/211 209/232/209
f 177/200/77 176/199/76 210/275/210 212/274/212
f 156/180/237 157/181/238 213/236/213 211/234/211
f 178/201/78 177/200/77 212/274/212 214/273/214
f 157/181/238 158/182/239 215/238/215 213/236/213
f 179/202/79 178/201/78 214/273/214 216/272/216
f 158/182/239 159/183/240 217/240/217 215/238/215
f 180/203/80 179/202/79 216/272/216 218/271/218
f 159/183/240 160/184/241 219/242/219 217/240/217
f 181/204/81 180/203/80 218/271/218 220/270/220
f 160/184/241 161/185/242 221/244/221 219/242/219
f 182/205/82 181/204/81 220/270/220 222/269/222
f 161/185/242 143/166/223 184/288/183 221/244/221
f 163/186/62 182/205/82 222/269/222 186/209/186
